; Engine configuration file.
; It's best edited using the editor UI and not directly,
; since the parameters that go here are not all obvious.
;
; Format:
;   [section] ; section goes between []
;   param=value ; assign values to parameters

config_version=4

[application]

config/name="Three Lines"
run/main_scene="res://src/Menu.tscn"
config/icon="res://icon.png"

[input]

up={
"deadzone": 0.5,
"events": [ Object(InputEventKey,"resource_local_to_scene":false,"resource_name":"","device":0,"alt":false,"shift":false,"control":false,"meta":false,"command":false,"pressed":false,"scancode":90,"unicode":0,"echo":false,"script":null)
 ]
}
down={
"deadzone": 0.5,
"events": [ Object(InputEventKey,"resource_local_to_scene":false,"resource_name":"","device":0,"alt":false,"shift":false,"control":false,"meta":false,"command":false,"pressed":false,"scancode":83,"unicode":0,"echo":false,"script":null)
 ]
}
left={
"deadzone": 0.5,
"events": [ Object(InputEventKey,"resource_local_to_scene":false,"resource_name":"","device":0,"alt":false,"shift":false,"control":false,"meta":false,"command":false,"pressed":false,"scancode":81,"unicode":0,"echo":false,"script":null)
 ]
}
right={
"deadzone": 0.5,
"events": [ Object(InputEventKey,"resource_local_to_scene":false,"resource_name":"","device":0,"alt":false,"shift":false,"control":false,"meta":false,"command":false,"pressed":false,"scancode":68,"unicode":0,"echo":false,"script":null)
 ]
}

[layer_names]

2d_render/layer_1="player"
2d_physics/layer_1="player"
2d_render/layer_2="enemy"
2d_physics/layer_2="enemy"
2d_render/layer_3="wall"
2d_physics/layer_3="wall"

[physics]

common/enable_pause_aware_picking=true

[rendering]

environment/default_environment="res://default_env.tres"
